{
  "tweak":{
    "maxLength": 1,
    "targets": [
      "DIALS",
      "TOGGLES",
      "SELECTOR"
    ],
    "sentences": [
      "tweak %option on %noun"
    ]
  }, 
  "tweaks": {
    "maxLength": 3,    
    "targets": [
      "DIALS",
      "TOGGLES"
    ],
    "sentences": [
      "tweaks %option on %noun"
    ]
  },
  "entercode": {
    "maxLength": 4,    
    "targets": [
      "JOYSTICK",
      "KEYPAD",
      "BUTTONS"
    ],
    "sentences": [
      "Enter %option on %noun"
    ]
  },
  "dodge": {
    "maxLength": 2,    
    "targets": [
      "JOYSTICK"
    ],
    "sentences": [
      "hit %option on %noun to dodge %var",
      "fly %option on %noun to hit %var",
      "fly %option on %noun to collect %var",
      "dodge %var! hit %option on %noun"
    ],
    "exclude": [
      "B"
    ],
    "var": [
      "missle",
      "cannon ball",
      "RPG",
      "Yo-yo"
    ]
  },
  "toggles": {
    "maxLength": 5,    
    "targets": [
      "TOGGLES"
    ],
    "sentences": [
      "toggle %option on %noun",
      "Flip %option on %noun",
      "Change position of %option on %noun"
    ]
  },
  "pickupphone": {
    "maxLength": 1,
    "targets": [
      "PHONE"
    ],
    "type": "EVENT",
    "sentences": [
      "pick up the phone!",
      "The phone is ringing",
      "Someone is calling you"
    ]
  },
  "changegear": {
    "maxLength": 3,
    "targets": [
      "NOTHING"
    ],
    "type": "EVENT",
    "sentences": [
      "Change up %option gears on %noun"
    ]
  }
}