[
  {
    "layoutName": "1",
    "layout": {
      "gridTemplateRows": "1fr 2fr 2fr 2fr 2fr",
      "gridTemplateColumns": "1fr 1fr 1fr"
    },
    "modules": [
      {
        "type": "SELECTOR",
        "element": "radio",
        "name": "",
        "options": [
          {
            "label": "A",
            "key": "A"
          },
          {
            "label": "B",
            "key": "B"
          },
          {
            "label": "C",
            "key": "C"
          }
        ],
        "capabilities": [
          {
            "label": "1",
            "key": "1"
          }
        ],
        "location": {
          "gridColumnStart": 1,
          "gridColumnEnd": 4,
          "gridRowStart": 2,
          "gridRowEnd": 3,
          "gridTemplateRows": "1fr",
          "gridTemplateColumns": "1fr"
        },
        "layout": {
          "gridTemplateRows": "1fr",
          "gridTemplateColumns": "repeat(3, 1fr)"
        }
      },
      {
        "type": "DIALS",
        "element": "number",
        "name": "",
        "options": [
          {
            "label": "1",
            "key": "1"
          },
          {
            "label": "2",
            "key": "2"
          },
          {
            "label": "3",
            "key": "3"
          }
        ],
        "capabilities": [
          {
            "label": "1",
            "key": "1"
          },
          {
            "label": "2",
            "key": "2"
          },
          {
            "label": "3",
            "key": "3"
          }
        ],
        "location": {
          "gridColumnStart": 1,
          "gridColumnEnd": 4,
          "gridRowStart": 3,
          "gridRowEnd": 5,
          "gridTemplateRows": "auto",
          "gridTemplateColumns": "repeat(3, 1fr)"
        }
      },
      {
        "type": "BUTTONS",
        "element": "button",
        "name": "",
        "options": "0-1",
        "capabilities": [
          {
            "label": "1",
            "key": "1"
          },
          {
            "label": "2",
            "key": "2"
          },
          {
            "label": "3",
            "key": "3"
          }
        ],
        "location": {
          "gridColumnStart": 1,
          "gridColumnEnd": 4,
          "gridRowStart": 5,
          "gridRowEnd": 6,
          "gridTemplateRows": "auto",
          "gridTemplateColumns": "repeat(3, 1fr)"
        }
      },
      {
        "type": "START",
        "element": "button",
        "options": "0-1",
        "capabilities": [
          {
            "label": "Start",
            "key": "S"
          }
        ],
        "location": {
          "gridColumnStart": 1,
          "gridColumnEnd": 7,
          "gridRowStart": 1,
          "gridRowEnd": 2
        },
        "layout": {
          "gridTemplateRows": "auto",
          "gridTemplateColumns": "auto"
        }
      }
    ]
  },
  {
    "layoutName": "2",
    "layout": {
      "gridTemplateRows": "1fr 2fr 2fr 2fr 2fr",
      "gridTemplateColumns": "1fr 1fr 1fr"
    },
    "modules": [
      {
        "type": "SELECTOR",
        "element": "radio",
        "name": "",
        "options": [
          {
            "label": "A",
            "key": "A"
          },
          {
            "label": "B",
            "key": "B"
          },
          {
            "label": "C",
            "key": "C"
          }
        ],
        "capabilities": [
          {
            "label": "1",
            "key": "1"
          }
        ],
        "location": {
          "gridColumnStart": 1,
          "gridColumnEnd": 4,
          "gridRowStart": 3,
          "gridRowEnd": 4,
          "gridTemplateRows": "1fr",
          "gridTemplateColumns": "1fr"
        },
        "layout": {
          "gridTemplateRows": "1fr",
          "gridTemplateColumns": "repeat(3, 1fr)"
        }
      },
      {
        "type": "DIALS",
        "element": "number",
        "name": "",
        "options": [
          {
            "label": "1",
            "key": "1"
          },
          {
            "label": "2",
            "key": "2"
          },
          {
            "label": "3",
            "key": "3"
          }
        ],
        "capabilities": [
          {
            "label": "1",
            "key": "1"
          },
          {
            "label": "2",
            "key": "2"
          },
          {
            "label": "3",
            "key": "3"
          }
        ],
        "location": {
          "gridColumnStart": 1,
          "gridColumnEnd": 4,
          "gridRowStart": 4,
          "gridRowEnd": 6,
          "gridTemplateRows": "auto",
          "gridTemplateColumns": "repeat(3, 1fr)"
        }
      },
      {
        "type": "BUTTONS",
        "element": "button",
        "name": "",
        "options": "0-1",
        "capabilities": [
          {
            "label": "1",
            "key": "1"
          },
          {
            "label": "2",
            "key": "2"
          },
          {
            "label": "3",
            "key": "3"
          }
        ],
        "location": {
          "gridColumnStart": 1,
          "gridColumnEnd": 4,
          "gridRowStart": 2,
          "gridRowEnd": 3,
          "gridTemplateRows": "auto",
          "gridTemplateColumns": "repeat(3, 1fr)"
        },
        "layout": {}
      },
      {
        "type": "START",
        "element": "button",
        "options": "0-1",
        "capabilities": [
          {
            "label": "Start",
            "key": "S"
          }
        ],
        "location": {
          "gridColumnStart": 1,
          "gridColumnEnd": 7,
          "gridRowStart": 1,
          "gridRowEnd": 2,
          "gridTemplateRows": "auto",
          "gridTemplateColumns": "auto"
        }
      }
    ]
  },
  {
    "layoutName": "3",
    "layout": {
      "gridTemplateRows": "1fr 2fr 2fr 2fr 2fr",
      "gridTemplateColumns": "1fr 1fr"
    },
    "modules": [
      {
        "type": "SELECTOR",
        "element": "radio",
        "name": "",
        "options": [
          {
            "label": "A",
            "key": "A"
          },
          {
            "label": "B",
            "key": "B"
          },
          {
            "label": "C",
            "key": "C"
          }
        ],
        "capabilities": [
          {
            "label": "1",
            "key": "1"
          }
        ],
        "location": {
          "gridColumnStart": 1,
          "gridColumnEnd": 3,
          "gridRowStart": 2,
          "gridRowEnd": 3,
          "gridTemplateRows": "1fr",
          "gridTemplateColumns": "1fr"
        },
        "layout": {
          "gridTemplateRows": "1fr",
          "gridTemplateColumns": "repeat(3, 1fr)"
        }
      },
      {
        "type": "DIALS",
        "element": "number",
        "name": "",
        "options": [
          {
            "label": "1",
            "key": "1"
          },
          {
            "label": "2",
            "key": "2"
          },
          {
            "label": "3",
            "key": "3"
          }
        ],
        "capabilities": [
          {
            "label": "1",
            "key": "1"
          },
          {
            "label": "2",
            "key": "2"
          },
          {
            "label": "3",
            "key": "3"
          }
        ],
        "location": {
          "gridColumnStart": 1,
          "gridColumnEnd": 3,
          "gridRowStart": 3,
          "gridRowEnd": 5,
          "gridTemplateRows": "auto",
          "gridTemplateColumns": "repeat(3, 1fr)"
        }
      },
      {
        "type": "BUTTONS",
        "element": "button",
        "name": "",
        "options": "0-1",
        "capabilities": [
          {
            "label": "1",
            "key": "1"
          },
          {
            "label": "2",
            "key": "2"
          },
          {
            "label": "3",
            "key": "3"
          }
        ],
        "location": {
          "gridColumnStart": 1,
          "gridColumnEnd": 3,
          "gridRowStart": 5,
          "gridRowEnd": 6,
          "gridTemplateRows": "auto",
          "gridTemplateColumns": "repeat(3, 1fr)"
        }
      },
      {
        "type": "START",
        "element": "button",
        "options": "0-1",
        "capabilities": [
          {
            "label": "Start",
            "key": "S"
          }
        ],
        "location": {
          "gridColumnStart": 1,
          "gridColumnEnd": 3,
          "gridRowStart": 1,
          "gridRowEnd": 2,
          "gridTemplateRows": "auto",
          "gridTemplateColumns": "auto"
        }
      }
    ]
  }
]