{
  "type": "TOGGLES",
  "element": "checkbox",
  "name": "",
  "options": "0-1",
  "capabilities": [
    {
      "label": "1",
      "key": "1"
    },
    {
      "label": "2",
      "key": "2"
    },
    {
      "label": "3",
      "key": "3"
    },
    {
      "label": "4",
      "key": "4"
    },
    {
      "label": "5",
      "key": "5"
    },
    {
      "label": "6",
      "key": "6"
    }
  ],
  "location": {
    "gridColumnStart": 1,
    "gridColumnEnd": 5,
    "gridRowStart": 4,
    "gridRowEnd": 6
  },
  "layout": {
    "gridTemplateRows": "auto",
    "gridTemplateColumns": "repeat(6, 1fr)"
  }
}